{
  "README.md": "7de1f5831019b76df1e57d361bb89820",
  "data/defaults.yaml": "849e6d47baed1258a2ae85411d00c687",
  "data/plugin.yaml": "cc7170bf01dc0fc16a270fa1299f339e",
  "files/mcollective/agent/shell/job.rb": "0fa1c7d34fa1797caea430ddafb3f95e",
  "files/mcollective/agent/shell.ddl": "2f7e0ec859b3c0b01086005ecb666430",
  "files/mcollective/agent/shell.rb": "a5284ff866517a62851faba42bec7b69",
  "files/mcollective/application/shell/prefix_stream_buf.rb": "bb50acf7a7d45831bc955c6885e0806e",
  "files/mcollective/application/shell/watcher.rb": "6594e6efca42ed396416bddc0d8a6c07",
  "files/mcollective/application/shell.rb": "8436bb44388751872de1a5dced80569e",
  "hiera.yaml": "3d31dfa7be184e008811f2ee66b361b3",
  "manifests/init.pp": "62d9fc2bd245b7bd2034936dbbc291ad",
  "metadata.json": "fa87fbb7aa65bb3f256c3e57af48ffa8"
}